09:07 / 09-04 - CACHE: COMPETITION 7 DAYS END
09:17 / 09-04 - METRICS: END
10:00 / 09-04 - CACHE: 7 DAYS START
10:00 / 09-04 - CACHE: 7 DAYS START
10:00 / 09-04 - CACHE: 7 DAYS START
10:00 / 09-04 - CACHE: 7 DAYS START
10:00 / 09-04 - CACHE: BEST RANKINGS START
10:00 RMS: 2019-04-09: 14762
10:02 / 09-04 - CACHE: 7 DAYS END
10:13 / 09-04 - CACHE: 7 DAYS END
10:14 / 09-04 - CACHE: BEST RANKINGS END
10:17 / 09-04 - CACHE: 7 DAYS END
10:18 / 09-04 - CACHE: 7 DAYS END
11:00 / 09-04 - CACHE: WINNER/LOOSER START
11:00 / 09-04 - MEDIAVALUE START MONTHLYALL
11:00 / 09-04 - MEDIAVALUE START DAILY
11:00 / 09-04 - MEDIAVALUE SETID: 774, AMOUNT: 76, VAL: 0
11:00 / 09-04 - MEDIAVALUE SETID: 2, AMOUNT: 3782, VAL: 3984.7
11:00 / 09-04 - MEDIAVALUE SETID: 17, AMOUNT: 16982, VAL: 5456.75
11:00 / 09-04 - MEDIAVALUE SETID: 862, AMOUNT: 978, VAL: 703.18
11:00 / 09-04 - MEDIAVALUE SETID: 112, AMOUNT: 2061, VAL: 2539.34
11:00 / 09-04 - MEDIAVALUE SETID: 998, AMOUNT: 887, VAL: 3327.31
11:00 / 09-04 - MEDIAVALUE SETID: 1096, AMOUNT: 246, VAL: 2130.83
11:00 / 09-04 - MEDIAVALUE SETID: 119, AMOUNT: 7353, VAL: 133.37
11:00 / 09-04 - MEDIAVALUE SETID: 1097, AMOUNT: 478, VAL: 963.1
11:00 / 09-04 - MEDIAVALUE SETID: 120, AMOUNT: 2948, VAL: 96.05
11:00 / 09-04 - MEDIAVALUE SETID: 1290, AMOUNT: 300, VAL: 2073.75
11:00 / 09-04 - MEDIAVALUE SETID: 122, AMOUNT: 12432, VAL: 111570.19
11:00 / 09-04 - MEDIAVALUE SETID: 1379, AMOUNT: 13, VAL: 0
11:00 / 09-04 - MEDIAVALUE SETID: 123, AMOUNT: 8032, VAL: 158354.83
11:00 / 09-04 - MEDIAVALUE SETID: 1402, AMOUNT: 14, VAL: 0
11:00 / 09-04 - MEDIAVALUE SETID: 136, AMOUNT: 258, VAL: 0.16
11:00 / 09-04 - MEDIAVALUE SETID: 1510, AMOUNT: 1, VAL: 0
11:00 / 09-04 - MEDIAVALUE SETID: 143, AMOUNT: 855, VAL: 2314.51
11:00 / 09-04 - MEDIAVALUE SETID: 2067, AMOUNT: 344, VAL: 0
11:01 / 09-04 - MEDIAVALUE SETID: 150, AMOUNT: 540, VAL: 836
11:01 / 09-04 - MEDIAVALUE SETID: 2071, AMOUNT: 581, VAL: 314.6
11:01 / 09-04 - MEDIAVALUE SETID: 160, AMOUNT: 1230, VAL: 744.96
11:01 / 09-04 - MEDIAVALUE SETID: 2072, AMOUNT: 581, VAL: 314.6
11:01 / 09-04 - MEDIAVALUE SETID: 169, AMOUNT: 1247, VAL: 2574.26
11:01 / 09-04 - MEDIAVALUE SETID: 2211, AMOUNT: 8, VAL: 0
11:01 / 09-04 - MEDIAVALUE SETID: 190, AMOUNT: 1089, VAL: 488.18
11:01 / 09-04 - MEDIAVALUE SETID: 2220, AMOUNT: 98, VAL: 2408.51
11:01 / 09-04 - MEDIAVALUE SETID: 199, AMOUNT: 1245, VAL: 4327.06
11:01 / 09-04 - MEDIAVALUE SETID: 2914, AMOUNT: 1, VAL: 0
11:01 / 09-04 - MEDIAVALUE SETID: 200, AMOUNT: 2466, VAL: 14472.39
11:01 / 09-04 - MEDIAVALUE SETID: 3052, AMOUNT: 582, VAL: 3325.71
11:01 / 09-04 - MEDIAVALUE SETID: 201, AMOUNT: 1226, VAL: 2626.53
11:01 / 09-04 - MEDIAVALUE SETID: 3625, AMOUNT: 1000, VAL: 3928.44
11:01 / 09-04 - MEDIAVALUE SETID: 504, AMOUNT: 1872, VAL: 634.01
11:01 / 09-04 - MEDIAVALUE SETID: 505, AMOUNT: 455, VAL: 966.37
11:01 / 09-04 - MEDIAVALUE SETID: 202, AMOUNT: 1239, VAL: 3748.04
11:01 / 09-04 - MEDIAVALUE SETID: 506, AMOUNT: 481, VAL: 1009.65
11:01 / 09-04 - MEDIAVALUE SETID: 203, AMOUNT: 718, VAL: 131.54
11:01 / 09-04 - MEDIAVALUE SETID: 507, AMOUNT: 707, VAL: 1017.01
11:01 / 09-04 - CACHE: WINNER/LOOSER END
11:01 / 09-04 - MEDIAVALUE SETID: 204, AMOUNT: 674, VAL: 6429.06
11:02 / 09-04 - MEDIAVALUE SETID: 508, AMOUNT: 562, VAL: 20.18
11:02 / 09-04 - MEDIAVALUE SETID: 205, AMOUNT: 568, VAL: 7202.3
11:02 / 09-04 - MEDIAVALUE SETID: 566, AMOUNT: 1167, VAL: 3204.28
11:02 / 09-04 - MEDIAVALUE SETID: 738, AMOUNT: 29, VAL: 2284.52
11:02 / 09-04 - MEDIAVALUE SETID: 206, AMOUNT: 374, VAL: 1404.1
11:02 / 09-04 - MEDIAVALUE SETID: 1035, AMOUNT: 2800, VAL: 96.49
11:02 / 09-04 - MEDIAVALUE SETID: 207, AMOUNT: 225, VAL: 1147.98
11:02 / 09-04 - MEDIAVALUE SETID: 1039, AMOUNT: 2702, VAL: 212.39
11:02 / 09-04 - MEDIAVALUE SETID: 208, AMOUNT: 1034, VAL: 3304
11:02 / 09-04 - MEDIAVALUE SETID: 1436, AMOUNT: 1757, VAL: 123.92
11:02 / 09-04 - MEDIAVALUE SETID: 1437, AMOUNT: 69, VAL: 151.08
11:02 / 09-04 - MEDIAVALUE SETID: 209, AMOUNT: 388, VAL: 390.51
11:02 / 09-04 - MEDIAVALUE SETID: 1833, AMOUNT: 236, VAL: 480.04
11:02 / 09-04 - MEDIAVALUE SETID: 210, AMOUNT: 573, VAL: 836.25
11:02 / 09-04 - MEDIAVALUE SETID: 1946, AMOUNT: 669, VAL: 136.65
11:02 / 09-04 - MEDIAVALUE SETID: 2321, AMOUNT: 154, VAL: 21.36
11:02 / 09-04 - MEDIAVALUE SETID: 211, AMOUNT: 330, VAL: 707.8
11:03 / 09-04 - MEDIAVALUE SETID: 2442, AMOUNT: 133, VAL: 38.35
11:03 / 09-04 - MEDIAVALUE SETID: 2549, AMOUNT: 116, VAL: 4.83
11:03 / 09-04 - MEDIAVALUE SETID: 3025, AMOUNT: 60, VAL: 2957.01
11:03 / 09-04 - MEDIAVALUE SETID: 3027, AMOUNT: 1874, VAL: 3689.82
11:03 / 09-04 - MEDIAVALUE SETID: 3825, AMOUNT: 457, VAL: 18.87
11:03 / 09-04 - MEDIAVALUE SETID: 3826, AMOUNT: 58, VAL: 6.81
11:03 / 09-04 - MEDIAVALUE SETID: 3831, AMOUNT: 2830, VAL: 130.4
11:03 / 09-04 - MEDIAVALUE SETID: 3832, AMOUNT: 31, VAL: 119.38
11:03 / 09-04 - MEDIAVALUE SETID: 3858, AMOUNT: 37, VAL: 0
11:03 / 09-04 - MEDIAVALUE SETID: 3866, AMOUNT: 1260, VAL: 120.92
11:03 / 09-04 - MEDIAVALUE SETID: 3929, AMOUNT: 179, VAL: 0
11:03 / 09-04 - MEDIAVALUE SETID: 3981, AMOUNT: 288, VAL: 240.97
11:03 / 09-04 - MEDIAVALUE SETID: 3984, AMOUNT: 7, VAL: 0
11:04 / 09-04 - MEDIAVALUE SETID: 3985, AMOUNT: 12, VAL: 880.92
11:04 / 09-04 - MEDIAVALUE SETID: 3994, AMOUNT: 8, VAL: 0
11:04 / 09-04 - MEDIAVALUE SETID: 3996, AMOUNT: 8, VAL: 0
11:04 / 09-04 - MEDIAVALUE SETID: 4065, AMOUNT: 6, VAL: 1.77
11:04 / 09-04 - MEDIAVALUE SETID: 4075, AMOUNT: 33, VAL: 0
11:04 / 09-04 - MEDIAVALUE SETID: 4084, AMOUNT: 1372, VAL: 29.82
11:04 / 09-04 - MEDIAVALUE SETID: 1459, AMOUNT: 1808, VAL: 1040.65
11:04 / 09-04 - MEDIAVALUE SETID: 1514, AMOUNT: 1808, VAL: 1040.65
11:04 / 09-04 - MEDIAVALUE SETID: 1515, AMOUNT: 1808, VAL: 1040.65
11:04 / 09-04 - MEDIAVALUE SETID: 1725, AMOUNT: 23, VAL: 1487.5
11:04 / 09-04 - MEDIAVALUE SETID: 1757, AMOUNT: 23, VAL: 1487.5
11:04 / 09-04 - MEDIAVALUE SETID: 1901, AMOUNT: 232, VAL: 39.09
11:04 / 09-04 - MEDIAVALUE SETID: 1115, AMOUNT: 1047, VAL: 17.19
11:05 / 09-04 - MEDIAVALUE SETID: 3904, AMOUNT: 1647, VAL: 45.06
11:05 / 09-04 - MEDIAVALUE SETID: 3905, AMOUNT: 839, VAL: 40.83
11:05 / 09-04 - MEDIAVALUE SETID: 3906, AMOUNT: 715, VAL: 0
11:05 / 09-04 - MEDIAVALUE SETID: 3907, AMOUNT: 1560, VAL: 6.7
11:05 / 09-04 - MEDIAVALUE SETID: 3908, AMOUNT: 2399, VAL: 67.73
11:05 / 09-04 - MEDIAVALUE SETID: 1114, AMOUNT: 993, VAL: 1.68
11:05 / 09-04 - MEDIAVALUE SETID: 3862, AMOUNT: 1028, VAL: 4.24
11:05 / 09-04 - MEDIAVALUE SETID: 3902, AMOUNT: 920, VAL: 82.09
11:05 / 09-04 - MEDIAVALUE SETID: 3903, AMOUNT: 877, VAL: 11.4
11:05 / 09-04 - MEDIAVALUE SETID: 1899, AMOUNT: 1700, VAL: 27076.69
11:05 / 09-04 - MEDIAVALUE SETID: 1959, AMOUNT: 452, VAL: 10015.06
11:05 / 09-04 - MEDIAVALUE SETID: 2235, AMOUNT: 1003, VAL: 9001.86
11:06 / 09-04 - MEDIAVALUE SETID: 2647, AMOUNT: 3070, VAL: 53678.34
11:06 / 09-04 - MEDIAVALUE SETID: 3265, AMOUNT: 119, VAL: 4895.68
11:06 / 09-04 - MEDIAVALUE SETID: 3506, AMOUNT: 359, VAL: 4271.22
11:06 / 09-04 - MEDIAVALUE SETID: 3507, AMOUNT: 43, VAL: 193.23
11:06 / 09-04 - MEDIAVALUE SETID: 3508, AMOUNT: 46, VAL: 83.78
11:06 / 09-04 - MEDIAVALUE SETID: 3509, AMOUNT: 160, VAL: 201.83
11:06 / 09-04 - MEDIAVALUE SETID: 3510, AMOUNT: 24, VAL: 4.56
11:06 / 09-04 - MEDIAVALUE SETID: 3511, AMOUNT: 69, VAL: 0
11:06 / 09-04 - MEDIAVALUE SETID: 3525, AMOUNT: 87, VAL: 3200.7
11:06 / 09-04 - MEDIAVALUE SETID: 3526, AMOUNT: 392, VAL: 2318.05
11:06 / 09-04 - MEDIAVALUE SETID: 3667, AMOUNT: 105, VAL: 3208.53
11:06 / 09-04 - MEDIAVALUE SETID: 3818, AMOUNT: 289, VAL: 990.11
11:07 / 09-04 - MEDIAVALUE SETID: 3878, AMOUNT: 15, VAL: 374.14
11:07 / 09-04 - MEDIAVALUE SETID: 3880, AMOUNT: 697, VAL: 3478.26
11:07 / 09-04 - MEDIAVALUE SETID: 3881, AMOUNT: 15, VAL: 374.14
11:07 / 09-04 - MEDIAVALUE SETID: 3887, AMOUNT: 67, VAL: 602.18
11:07 / 09-04 - MEDIAVALUE SETID: 3888, AMOUNT: 34, VAL: 973.82
11:07 / 09-04 - MEDIAVALUE SETID: 3936, AMOUNT: 99, VAL: 21900.62
11:07 / 09-04 - MEDIAVALUE SETID: 3957, AMOUNT: 98, VAL: 3902.51
11:07 / 09-04 - MEDIAVALUE SETID: 3958, AMOUNT: 98, VAL: 3902.51
11:07 / 09-04 - MEDIAVALUE SETID: 3959, AMOUNT: 1098, VAL: 17980.96
11:07 / 09-04 - MEDIAVALUE SETID: 3960, AMOUNT: 103, VAL: 2226.13
11:07 / 09-04 - MEDIAVALUE SETID: 3961, AMOUNT: 103, VAL: 2226.13
11:07 / 09-04 - MEDIAVALUE SETID: 3962, AMOUNT: 1098, VAL: 17980.96
11:07 / 09-04 - MEDIAVALUE SETID: 4087, AMOUNT: 390, VAL: 3278.56
11:07 / 09-04 - MEDIAVALUE SETID: 4088, AMOUNT: 54, VAL: 92.42
11:07 / 09-04 - MEDIAVALUE SETID: 4089, AMOUNT: 77, VAL: 0
11:07 / 09-04 - MEDIAVALUE SETID: 4090, AMOUNT: 50, VAL: 0
11:08 / 09-04 - MEDIAVALUE SETID: 4091, AMOUNT: 39, VAL: 122.1
11:08 / 09-04 - MEDIAVALUE SETID: 4092, AMOUNT: 180, VAL: 6824.7
11:08 / 09-04 - MEDIAVALUE SETID: 4093, AMOUNT: 29, VAL: 0
11:08 / 09-04 - MEDIAVALUE SETID: 4094, AMOUNT: 30, VAL: 0
11:08 / 09-04 - MEDIAVALUE SETID: 4096, AMOUNT: 2, VAL: 0
11:08 / 09-04 - MEDIAVALUE SETID: 4099, AMOUNT: 0, VAL: 0
11:08 / 09-04 - MEDIAVALUE SETID: 4139, AMOUNT: 2576, VAL: 8480.36
11:08 / 09-04 - MEDIAVALUE SETID: 4157, AMOUNT: 2224, VAL: 4120.95
11:08 / 09-04 - MEDIAVALUE SETID: 4158, AMOUNT: 5000, VAL: 33474.65
11:08 / 09-04 - MEDIAVALUE SETID: 4192, AMOUNT: 11, VAL: 0
11:08 / 09-04 - MEDIAVALUE SETID: 1497, AMOUNT: 128, VAL: 689.52
11:08 / 09-04 - MEDIAVALUE SETID: 1498, AMOUNT: 133, VAL: 173.09
11:08 / 09-04 - MEDIAVALUE SETID: 1517, AMOUNT: 51, VAL: 2.4
11:09 / 09-04 - MEDIAVALUE SETID: 1518, AMOUNT: 92, VAL: 571.05
11:09 / 09-04 - MEDIAVALUE SETID: 1700, AMOUNT: 985, VAL: 132144.98
11:09 / 09-04 - MEDIAVALUE SETID: 1701, AMOUNT: 268, VAL: 1089.62
11:09 / 09-04 - MEDIAVALUE SETID: 2206, AMOUNT: 107, VAL: 626.18
11:09 / 09-04 - MEDIAVALUE SETID: 2323, AMOUNT: 611, VAL: 21834.89
11:09 / 09-04 - MEDIAVALUE SETID: 2432, AMOUNT: 71, VAL: 305.91
11:09 / 09-04 - MEDIAVALUE SETID: 2449, AMOUNT: 354, VAL: 0.77
11:09 / 09-04 - MEDIAVALUE SETID: 2821, AMOUNT: 261, VAL: 71548.69
11:09 / 09-04 - MEDIAVALUE SETID: 2944, AMOUNT: 55, VAL: 3696.94
11:09 / 09-04 - MEDIAVALUE SETID: 3163, AMOUNT: 293, VAL: 1083.34
11:09 / 09-04 - MEDIAVALUE SETID: 3164, AMOUNT: 130, VAL: 1629.53
11:09 / 09-04 - MEDIAVALUE SETID: 3165, AMOUNT: 99, VAL: 70.14
11:10 / 09-04 - MEDIAVALUE SETID: 3166, AMOUNT: 57, VAL: 0
11:10 / 09-04 - MEDIAVALUE SETID: 3167, AMOUNT: 368, VAL: 1935.08
11:10 / 09-04 - MEDIAVALUE SETID: 3172, AMOUNT: 286, VAL: 1699.67
11:10 / 09-04 - MEDIAVALUE SETID: 3173, AMOUNT: 444, VAL: 10622.89
11:10 / 09-04 - MEDIAVALUE SETID: 3174, AMOUNT: 190, VAL: 5466.64
11:10 / 09-04 - MEDIAVALUE SETID: 3176, AMOUNT: 17, VAL: 8.88
11:10 / 09-04 - MEDIAVALUE SETID: 3177, AMOUNT: 14, VAL: 195.6
11:10 / 09-04 - MEDIAVALUE SETID: 3178, AMOUNT: 66, VAL: 14811.29
11:10 / 09-04 - MEDIAVALUE SETID: 3179, AMOUNT: 21, VAL: 30.93
11:10 / 09-04 - MEDIAVALUE SETID: 3183, AMOUNT: 135, VAL: 889.84
11:10 / 09-04 - MEDIAVALUE SETID: 3185, AMOUNT: 33, VAL: 8868.82
11:10 / 09-04 - MEDIAVALUE SETID: 3400, AMOUNT: 135, VAL: 689.52
11:10 / 09-04 - MEDIAVALUE SETID: 3401, AMOUNT: 252, VAL: 173.09
11:11 / 09-04 - MEDIAVALUE SETID: 3402, AMOUNT: 24, VAL: 2.4
11:11 / 09-04 - MEDIAVALUE SETID: 3403, AMOUNT: 224, VAL: 571.05
11:11 / 09-04 - MEDIAVALUE SETID: 3405, AMOUNT: 985, VAL: 132144.98
11:11 / 09-04 - MEDIAVALUE SETID: 3406, AMOUNT: 268, VAL: 1089.62
11:11 / 09-04 - MEDIAVALUE SETID: 3407, AMOUNT: 112, VAL: 626.18
11:11 / 09-04 - MEDIAVALUE SETID: 3408, AMOUNT: 633, VAL: 21844.13
11:11 / 09-04 - MEDIAVALUE SETID: 3409, AMOUNT: 71, VAL: 305.91
11:11 / 09-04 - MEDIAVALUE SETID: 3410, AMOUNT: 279, VAL: 71549.25
11:11 / 09-04 - MEDIAVALUE SETID: 3411, AMOUNT: 354, VAL: 0.77
11:11 / 09-04 - MEDIAVALUE SETID: 3412, AMOUNT: 55, VAL: 3696.94
11:11 / 09-04 - MEDIAVALUE SETID: 3413, AMOUNT: 392, VAL: 1085.94
11:11 / 09-04 - MEDIAVALUE SETID: 3414, AMOUNT: 280, VAL: 1629.53
11:11 / 09-04 - MEDIAVALUE SETID: 3415, AMOUNT: 201, VAL: 70.24
11:11 / 09-04 - MEDIAVALUE SETID: 3416, AMOUNT: 100, VAL: 0
11:11 / 09-04 - MEDIAVALUE SETID: 3417, AMOUNT: 581, VAL: 1785.03
11:11 / 09-04 - MEDIAVALUE SETID: 3418, AMOUNT: 501, VAL: 11536.45
11:11 / 09-04 - MEDIAVALUE SETID: 3419, AMOUNT: 190, VAL: 5466.64
11:11 / 09-04 - MEDIAVALUE SETID: 3420, AMOUNT: 21, VAL: 8.88
11:11 / 09-04 - MEDIAVALUE SETID: 3421, AMOUNT: 14, VAL: 195.6
11:11 / 09-04 - MEDIAVALUE SETID: 3422, AMOUNT: 66, VAL: 14811.29
11:12 / 09-04 - MEDIAVALUE SETID: 3423, AMOUNT: 25, VAL: 30.93
11:12 / 09-04 - MEDIAVALUE SETID: 3424, AMOUNT: 33, VAL: 8868.82
11:12 / 09-04 - MEDIAVALUE SETID: 3430, AMOUNT: 644, VAL: 2020.44
11:12 / 09-04 - MEDIAVALUE SETID: 3432, AMOUNT: 126, VAL: 889.06
11:12 / 09-04 - MEDIAVALUE SETID: 3577, AMOUNT: 26, VAL: 0
11:12 / 09-04 - MEDIAVALUE SETID: 3578, AMOUNT: 26, VAL: 0
11:12 / 09-04 - MEDIAVALUE SETID: 3599, AMOUNT: 887, VAL: 98962.28
11:12 / 09-04 - MEDIAVALUE SETID: 3689, AMOUNT: 490, VAL: 1.86
11:12 / 09-04 - MEDIAVALUE SETID: 3690, AMOUNT: 625, VAL: 0
11:12 / 09-04 - MEDIAVALUE SETID: 3691, AMOUNT: 1071, VAL: 0
11:12 / 09-04 - MEDIAVALUE SETID: 3692, AMOUNT: 77, VAL: 46.99
11:12 / 09-04 - MEDIAVALUE SETID: 3988, AMOUNT: 1057, VAL: 11915.84
11:12 / 09-04 - MEDIAVALUE SETID: 1361, AMOUNT: 258, VAL: 0.16
11:12 / 09-04 - MEDIAVALUE SETID: 1375, AMOUNT: 104, VAL: 513.71
11:12 / 09-04 - MEDIAVALUE SETID: 1377, AMOUNT: 30, VAL: 482.88
11:13 / 09-04 - MEDIAVALUE SETID: 1378, AMOUNT: 296, VAL: 12
11:13 / 09-04 - MEDIAVALUE SETID: 1775, AMOUNT: 82, VAL: 587.33
11:13 / 09-04 - MEDIAVALUE SETID: 1896, AMOUNT: 88, VAL: 460.42
11:13 / 09-04 - MEDIAVALUE SETID: 1897, AMOUNT: 214, VAL: 362.94
11:13 / 09-04 - MEDIAVALUE SETID: 1898, AMOUNT: 25, VAL: 28.82
11:13 / 09-04 - MEDIAVALUE SETID: 2175, AMOUNT: 20, VAL: 21.49
11:13 / 09-04 - MEDIAVALUE SETID: 2176, AMOUNT: 14, VAL: 0
11:13 / 09-04 - MEDIAVALUE SETID: 1683, AMOUNT: 70, VAL: 516.74
11:13 / 09-04 - MEDIAVALUE SETID: 2768, AMOUNT: 18, VAL: 519.23
11:13 / 09-04 - MEDIAVALUE SETID: 2857, AMOUNT: 91, VAL: 48.93
11:13 / 09-04 - MEDIAVALUE SETID: 3083, AMOUNT: 16, VAL: 506.63
11:13 / 09-04 - MEDIAVALUE SETID: 3136, AMOUNT: 61, VAL: 1.02
11:14 / 09-04 - MEDIAVALUE SETID: 3670, AMOUNT: 305, VAL: 0.66
11:14 / 09-04 - MEDIAVALUE SETID: 2825, AMOUNT: 100, VAL: 13.81
11:14 / 09-04 - MEDIAVALUE SETID: 2831, AMOUNT: 100, VAL: 0
11:14 / 09-04 - MEDIAVALUE SETID: 2837, AMOUNT: 100, VAL: 673.82
11:14 / 09-04 - MEDIAVALUE SETID: 2877, AMOUNT: 11, VAL: 0
11:14 / 09-04 - MEDIAVALUE SETID: 2878, AMOUNT: 11, VAL: 0
11:14 / 09-04 - MEDIAVALUE SETID: 2879, AMOUNT: 11, VAL: 0
11:14 / 09-04 - MEDIAVALUE SETID: 2883, AMOUNT: 11, VAL: 1.95
11:14 / 09-04 - MEDIAVALUE SETID: 2884, AMOUNT: 11, VAL: 1.95
11:14 / 09-04 - MEDIAVALUE SETID: 2886, AMOUNT: 11, VAL: 39.09
11:14 / 09-04 - MEDIAVALUE SETID: 2887, AMOUNT: 11, VAL: 39.09
11:14 / 09-04 - MEDIAVALUE SETID: 2888, AMOUNT: 11, VAL: 39.09
11:14 / 09-04 - MEDIAVALUE SETID: 2907, AMOUNT: 519, VAL: 728.67
11:14 / 09-04 - MEDIAVALUE SETID: 2908, AMOUNT: 519, VAL: 728.67
11:14 / 09-04 - MEDIAVALUE SETID: 2919, AMOUNT: 111, VAL: 16.29
11:14 / 09-04 - MEDIAVALUE SETID: 2925, AMOUNT: 276, VAL: 0
11:14 / 09-04 - MEDIAVALUE SETID: 2927, AMOUNT: 276, VAL: 0
11:14 / 09-04 - MEDIAVALUE SETID: 2928, AMOUNT: 111, VAL: 16.29
11:14 / 09-04 - MEDIAVALUE SETID: 3221, AMOUNT: 108, VAL: 0
11:14 / 09-04 - MEDIAVALUE SETID: 3451, AMOUNT: 108, VAL: 0
11:15 / 09-04 - MEDIAVALUE SETID: 3452, AMOUNT: 108, VAL: 0
11:15 / 09-04 - MEDIAVALUE SETID: 1779, AMOUNT: 20, VAL: 959.91
11:15 / 09-04 - MEDIAVALUE SETID: 1805, AMOUNT: 602, VAL: 1684.56
11:15 / 09-04 - MEDIAVALUE SETID: 1962, AMOUNT: 441, VAL: 1030.53
11:15 / 09-04 - MEDIAVALUE SETID: 2145, AMOUNT: 153, VAL: 51.36
11:15 / 09-04 - MEDIAVALUE SETID: 2148, AMOUNT: 158, VAL: 69.04
11:15 / 09-04 - MEDIAVALUE SETID: 2150, AMOUNT: 118, VAL: 146.92
11:15 / 09-04 - MEDIAVALUE SETID: 2151, AMOUNT: 113, VAL: 184.24
11:15 / 09-04 - MEDIAVALUE SETID: 2152, AMOUNT: 134, VAL: 35.66
11:15 / 09-04 - MEDIAVALUE SETID: 2194, AMOUNT: 261, VAL: 1738.92
11:15 / 09-04 - MEDIAVALUE SETID: 2262, AMOUNT: 25, VAL: 923.04
11:15 / 09-04 - MEDIAVALUE SETID: 2822, AMOUNT: 2, VAL: 246.09
11:16 / 09-04 - MEDIAVALUE SETID: 1918, AMOUNT: 943, VAL: 422.61
11:16 / 09-04 - MEDIAVALUE SETID: 3024, AMOUNT: 171, VAL: 191.78
11:16 / 09-04 - MEDIAVALUE SETID: 2094, AMOUNT: 12, VAL: 170.47
11:16 / 09-04 - MEDIAVALUE SETID: 2095, AMOUNT: 39, VAL: 85.45
11:16 / 09-04 - MEDIAVALUE SETID: 2096, AMOUNT: 494, VAL: 1383.95
11:16 / 09-04 - MEDIAVALUE SETID: 2104, AMOUNT: 108, VAL: 21.93
11:16 / 09-04 - MEDIAVALUE SETID: 2105, AMOUNT: 35, VAL: 116.08
11:16 / 09-04 - MEDIAVALUE SETID: 2108, AMOUNT: 174, VAL: 122.2
11:16 / 09-04 - MEDIAVALUE SETID: 2110, AMOUNT: 29, VAL: 169.46
11:16 / 09-04 - MEDIAVALUE SETID: 2245, AMOUNT: 563, VAL: 3663.8
11:16 / 09-04 - MEDIAVALUE SETID: 2556, AMOUNT: 8, VAL: 176.52
11:16 / 09-04 - MEDIAVALUE SETID: 2567, AMOUNT: 1, VAL: 0
11:16 / 09-04 - MEDIAVALUE SETID: 2568, AMOUNT: 1, VAL: 2.16
11:17 / 09-04 - MEDIAVALUE SETID: 2583, AMOUNT: 20, VAL: 271.29
11:17 / 09-04 - MEDIAVALUE SETID: 2652, AMOUNT: 11, VAL: 325.36
11:17 / 09-04 - MEDIAVALUE SETID: 2784, AMOUNT: 101, VAL: 370.13
11:17 / 09-04 - MEDIAVALUE SETID: 2792, AMOUNT: 63, VAL: 204.07
11:17 / 09-04 - MEDIAVALUE SETID: 3382, AMOUNT: 17, VAL: 0
11:17 / 09-04 - MEDIAVALUE SETID: 2099, AMOUNT: 1472, VAL: 9574.92
11:17 / 09-04 - MEDIAVALUE SETID: 2341, AMOUNT: 215, VAL: 598.73
11:17 / 09-04 - MEDIAVALUE SETID: 2981, AMOUNT: 118, VAL: 392.85
11:17 / 09-04 - MEDIAVALUE SETID: 3012, AMOUNT: 26, VAL: 1980.17
11:17 / 09-04 - MEDIAVALUE SETID: 3245, AMOUNT: 10, VAL: 3.71
11:17 / 09-04 - MEDIAVALUE SETID: 3391, AMOUNT: 646, VAL: 145.44
11:17 / 09-04 - MEDIAVALUE SETID: 3942, AMOUNT: 103, VAL: 10122.36
11:18 / 09-04 - MEDIAVALUE SETID: 2109, AMOUNT: 856, VAL: 2057.35
11:18 / 09-04 - MEDIAVALUE SETID: 3796, AMOUNT: 373, VAL: 589.22
11:18 / 09-04 - MEDIAVALUE SETID: 3478, AMOUNT: 134, VAL: 2397.15
11:18 / 09-04 - MEDIAVALUE SETID: 3484, AMOUNT: 678, VAL: 3100.6
11:18 / 09-04 - MEDIAVALUE SETID: 3485, AMOUNT: 749, VAL: 3488.41
11:18 / 09-04 - MEDIAVALUE SETID: 3718, AMOUNT: 22, VAL: 1393.29
11:18 / 09-04 - MEDIAVALUE SETID: 3719, AMOUNT: 48, VAL: 777.3
11:18 / 09-04 - MEDIAVALUE SETID: 3720, AMOUNT: 167, VAL: 800.1
11:19 / 09-04 - MEDIAVALUE SETID: 3792, AMOUNT: 22, VAL: 1393.29
11:19 / 09-04 - MEDIAVALUE SETID: 3793, AMOUNT: 48, VAL: 777.3
11:19 / 09-04 - MEDIAVALUE SETID: 3794, AMOUNT: 167, VAL: 800.1
11:19 / 09-04 - MEDIAVALUE SETID: 2473, AMOUNT: 718, VAL: 131.54
11:19 / 09-04 - MEDIAVALUE SETID: 2354, AMOUNT: 283, VAL: 2737.99
11:19 / 09-04 - MEDIAVALUE SETID: 3435, AMOUNT: 216, VAL: 18.06
11:19 / 09-04 - MEDIAVALUE SETID: 3940, AMOUNT: 221, VAL: 4772.65
11:19 / 09-04 - MEDIAVALUE SETID: 2102, AMOUNT: 277, VAL: 2355.58
11:19 / 09-04 - MEDIAVALUE SETID: 3434, AMOUNT: 209, VAL: 2.38
11:19 / 09-04 - MEDIAVALUE SETID: 3941, AMOUNT: 105, VAL: 6177.01
11:19 / 09-04 - MEDIAVALUE SETID: 2458, AMOUNT: 374, VAL: 1404.1
11:19 / 09-04 - MEDIAVALUE SETID: 2485, AMOUNT: 104, VAL: 46.85
11:19 / 09-04 - MEDIAVALUE SETID: 3835, AMOUNT: 123, VAL: 1108.61
11:19 / 09-04 - MEDIAVALUE SETID: 2098, AMOUNT: 519, VAL: 2271.43
11:19 / 09-04 - MEDIAVALUE SETID: 3436, AMOUNT: 424, VAL: 65.36
11:20 / 09-04 - MEDIAVALUE SETID: 3939, AMOUNT: 99, VAL: 1031.16
11:20 / 09-04 - MEDIAVALUE SETID: 2188, AMOUNT: 388, VAL: 390.51
11:20 / 09-04 - MEDIAVALUE SETID: 2200, AMOUNT: 573, VAL: 836.25
11:20 / 09-04 - MEDIAVALUE SETID: 2481, AMOUNT: 249, VAL: 49.2
11:20 / 09-04 - MEDIAVALUE SETID: 3834, AMOUNT: 83, VAL: 662.95
