<?xml version="1.0" encoding="utf-8"?>
<!-- Generator: Adobe Illustrator 15.1.0, SVG Export Plug-In . SVG Version: 6.00 Build 0)  -->
<!DOCTYPE svg PUBLIC "-//W3C//DTD SVG 1.1//EN" "http://www.w3.org/Graphics/SVG/1.1/DTD/svg11.dtd">
<svg version="1.1" id="Ebene_1" xmlns="http://www.w3.org/2000/svg" xmlns:xlink="http://www.w3.org/1999/xlink" x="0px" y="0px"
	 width="841.9px" height="87.8px" viewBox="0 0 841.9 87.8" enable-background="new 0 0 841.9 87.8" xml:space="preserve">
<path fill="#EDEDED" d="M96,44.3C98.3,33.5,106.5,24,122.8,24c16.2,0,20.7,9.5,18.4,20.2c-2.3,10.7-10.5,20.2-26.8,20.2
	C98.2,64.5,93.7,55.1,96,44.3z M132.8,44.3c1.7-8.4-2.199-14.2-11.199-14.2S106.2,36,104.5,44.3c-1.7,8.3,2.2,14.2,11.2,14.2
	C124.6,58.5,131,52.701,132.8,44.3z"/>
<path fill="#EDEDED" d="M142.5,35h7.4l-0.9,4.3h0.101c3.1-3.1,7.199-5,12.3-5c6.2,0,11.5,2.1,10,9.9l-4,19.299H160l3.5-17
	c0.2-0.799,0.2-1.5,0.2-2.299c0-2.3-1.4-4.2-6-4.2c-3.9,0-9.3,2.1-10.6,8.201L144,63.5H136.6L142.5,35z"/>
<path fill="#EDEDED" d="M177.4,51.1c-0.4,3.2,0.6,8.101,8,8.101c4.899,0,7.399-1.701,9.3-4.101h8.1c-2.3,3.2-7.399,9.5-18.3,9.5
	c-12.899,0-16-7.5-14.399-15C172,40.1,180.4,34,190.5,34c12.601,0,15.8,7.8,14.101,16.1l-0.2,1.101h-27V51.1z M197.5,46.4
	c0.3-5.7-4.5-7.4-8.1-7.4c-3.4,0-8.5,1.6-11,7.4H197.5z"/>
<path fill="#EDEDED" d="M210,25.1h25.8c10.9,0,12.101,6.5,11.101,11.7c-1.7,8.2-7,13-15.4,13h-16.2L212.5,63.5H202.1L210,25.1z
	 M216.8,42.8H228c3.2,0,6.9-0.1,8.101-5.3c1-5-1.9-5.4-4.9-5.4H219L216.8,42.8z"/>
<path fill="#EDEDED" d="M247,34.7h9.101l-1.2,5.6h0.1c4.3-4.5,7.5-6.4,12.8-6.4c1.101,0,2.4,0.1,3.4,0.3l-1.8,8.9
	c-1.7-0.5-3.3-0.9-5-0.9c-6.5,0-10.2,3.299-11.3,8.9L250.5,63.5H241L247,34.7z"/>
<path fill="#EDEDED" d="M287.4,33.6c11.3,0,18.101,4.6,15.8,15.5C300.9,60,292.4,64.5,281,64.5c-11.3,0-18.1-4.6-15.8-15.5
	C267.5,38.1,276,33.6,287.4,33.6z M282.3,57.9c5.9,0,9.801-3.199,11.101-8.8c1.3-5.6-1.601-8.8-7.4-8.8s-9.8,3.2-11.1,8.8
	C273.6,54.701,276.5,57.9,282.3,57.9z"/>
<path fill="#EDEDED" d="M312.4,47.201c-7.1-1.101-9.3-5.401-8.2-10.801c2.101-9.9,12.4-12.6,24.8-12.6c17.101,0,23.101,4.5,22,12.6
	h-17.6c0.4-1.6-0.3-2.5-1.7-3.1c-1.2-0.6-2.899-0.8-4.6-0.8c-4.5,0-6.2,1.1-6.601,2.7c-0.199,1.1,0.101,1.8,1.601,2l17.6,2.7
	c7.4,1.1,11.3,4.7,10,11.2c-2,9.399-10.5,13.8-27.6,13.8c-11.5,0-24.101-1.6-21.8-12.9h18.3c-0.2,1.201,0.2,2.101,1.1,2.701
	c1,0.5,2.601,0.799,4.9,0.799c4.7,0,6.3-1.199,6.7-3.1c0.199-1.1-0.301-2.199-2.2-2.6L312.4,47.201z"/>
<path fill="#EDEDED" d="M389.6,54.701c-1.7,3.199-4.5,5.6-8.3,7.299c-3.8,1.701-8.5,2.701-14.8,2.701
	c-14.101,0-21.101-5.201-18.9-15.9c2.1-10.2,11.1-15.8,24.3-15.8c13.101,0,21.5,4.4,18.4,19h-29.5c-0.4,2.101,1.1,5.301,7,5.301
	c3.5,0,5.6-0.7,7.5-2.6H389.6z M378.2,45.1c0.4-3.2-2.199-5.2-6.899-5.2s-7.601,1.5-9.101,5.2H378.2z"/>
<path fill="#EDEDED" d="M414.1,32.9c15.1,0,20.7,5,18.4,15.801c-2.101,10.899-9.9,15.899-25,15.899c-15.301,0-20.601-5-18.5-15.899
	C391.301,38,398.9,32.9,414.1,32.9z M409.301,55.9c5.399,0,8.2-2.5,9.1-7.199c1-4.701-0.8-7.101-6.2-7.101
	c-5.399,0-8.199,2.5-9.199,7.101C402.2,53.5,404.001,55.9,409.301,55.9z"/>
<path fill="#3AAA35" d="M43.9,4.1C20.8,4.1,2,22.8,2,46C2,69.1,20.7,87.9,43.9,87.9c1.5,0,3-0.1,4.5-0.199L53.9,62.4
	c1.2-5.3,2.5-10.199,3.899-14.9C57.5,47.8,56.4,48.6,54.6,49.9C52.8,51.3,48.2,54.201,41,58.701L34.1,47.5L63.5,29.4h12.9L65.3,81.9
	C77.5,74.6,85.7,61.201,85.7,46C85.7,22.8,67,4.1,43.9,4.1z"/>
<path fill="#FFFFFF" d="M48.4,87.6C54.5,86.9,60.3,85,65.3,81.9L76.4,29.4H63.5L34.1,47.5L41,58.701c7.3-4.5,11.8-7.5,13.601-8.801
	c1.8-1.4,2.899-2.199,3.199-2.4C56.4,52.201,55.1,57.1,53.9,62.4L48.4,87.6z"/>
<g>
	<path fill="#EDEDED" d="M464.154,40.905h10.788c6.378,0,8.404,4.172,7.152,10.341c-1.252,5.93-4.857,10.937-11.384,10.937h-10.967
		L464.154,40.905z M471.128,59.441c5.186,0,7.003-4.352,7.778-8.136c0.805-3.726,0.387-7.659-5.097-7.659h-7.062l-3.278,15.794
		H471.128z"/>
	<path fill="#EDEDED" d="M484.273,51.454c1.222-3.903,4.202-5.423,8.881-5.423c3.188,0,7.062,0.774,6.258,4.439l-1.729,8.404
		c-0.208,0.894,0.149,1.341,1.043,1.341c0.328,0,0.745-0.03,1.073-0.119l-0.417,2.086c-0.745,0.119-1.669,0.179-2.385,0.179
		c-1.52,0-2.384-0.417-2.234-2.176c-1.521,1.609-4.619,2.533-7.152,2.533c-5.186,0-5.841-2.682-5.364-4.708
		c0.566-2.891,2.622-4.291,7.688-4.857l3.486-0.357c1.699-0.149,2.771-0.478,3.1-1.878c0.477-2.146-1.579-2.562-3.964-2.562
		c-2.503,0-4.917,0.715-5.482,3.099H484.273z M495.866,54.017c-0.566,0.506-1.401,0.715-3.1,0.924l-3.457,0.417
		c-2.384,0.328-3.725,0.894-4.082,2.562c-0.328,1.461,0.953,2.474,3.129,2.474c3.337,0,6.556-1.758,7.122-4.381L495.866,54.017z"/>
	<path fill="#EDEDED" d="M506.06,41.769h2.98l-1.014,4.798h4.471l-0.478,2.324h-4.47l-1.996,9.626
		c-0.269,1.281,0.536,1.698,2.056,1.698c0.686,0,1.4-0.09,2.116-0.209l-0.536,2.504c-1.044,0.208-2.146,0.208-3.368,0.208
		c-2.95,0-3.814-1.43-3.338-3.695l2.087-10.132h-3.219l0.477-2.324h3.219L506.06,41.769z"/>
	<path fill="#EDEDED" d="M512.826,51.454c1.222-3.903,4.202-5.423,8.881-5.423c3.188,0,7.062,0.774,6.258,4.439l-1.729,8.404
		c-0.208,0.894,0.149,1.341,1.043,1.341c0.328,0,0.745-0.03,1.073-0.119l-0.417,2.086c-0.745,0.119-1.669,0.179-2.385,0.179
		c-1.52,0-2.384-0.417-2.234-2.176c-1.521,1.609-4.619,2.533-7.152,2.533c-5.186,0-5.841-2.682-5.364-4.708
		c0.566-2.891,2.622-4.291,7.688-4.857l3.486-0.357c1.699-0.149,2.771-0.478,3.1-1.878c0.477-2.146-1.579-2.562-3.964-2.562
		c-2.503,0-4.917,0.715-5.482,3.099H512.826z M524.419,54.017c-0.566,0.506-1.401,0.715-3.1,0.924l-3.457,0.417
		c-2.384,0.328-3.725,0.894-4.082,2.562c-0.328,1.461,0.953,2.474,3.129,2.474c3.337,0,6.556-1.758,7.122-4.381L524.419,54.017z"/>
	<path fill="#EDEDED" d="M543.018,40.905h10.788c6.377,0,8.403,4.172,7.151,10.341c-1.251,5.93-4.857,10.937-11.384,10.937h-10.966
		L543.018,40.905z M549.992,59.441c5.185,0,7.003-4.352,7.777-8.136c0.805-3.726,0.388-7.659-5.096-7.659h-7.062l-3.278,15.794
		H549.992z"/>
	<path fill="#EDEDED" d="M564.18,46.567h2.98l-0.597,2.86h0.06c1.938-2.503,4.083-3.396,6.08-3.396c0.744,0,1.103,0.029,1.668,0.179
		l-0.685,3.218c-0.686-0.208-1.223-0.298-2.026-0.298c-2.95,0-5.364,1.759-6.08,5.126l-1.639,7.927h-2.98L564.18,46.567z"/>
	<path fill="#EDEDED" d="M575.417,46.567h2.98l-3.219,15.615h-2.98L575.417,46.567z M576.638,40.726h2.98l-0.686,3.278h-2.98
		L576.638,40.726z"/>
	<path fill="#EDEDED" d="M593.237,46.567h3.338l-10.251,15.615h-3.278l-3.874-15.615h3.427l2.802,12.337L593.237,46.567z"/>
	<path fill="#EDEDED" d="M598.038,55.268c-0.477,3.249,2.086,4.947,4.708,4.947c1.729,0,4.143-0.566,5.633-2.771h3.159
		c-2.295,3.725-6.05,5.274-9.149,5.274c-6.079,0-8.284-3.844-7.331-8.344c0.954-4.5,4.679-8.344,10.788-8.344
		c4.112,0,7.986,2.384,6.616,8.851l-0.06,0.387H598.038z M609.719,52.944c0.149-2.831-1.758-4.41-4.529-4.41
		s-5.543,1.639-6.586,4.41H609.719z"/>
	<path fill="#EDEDED" d="M616.339,46.567h2.98l-0.478,2.354h0.06c1.848-2.176,4.471-2.891,6.705-2.891
		c3.755,0,6.229,1.608,5.424,5.513l-2.205,10.639h-2.979l2.086-10.043c0.477-2.294-0.656-3.605-3.874-3.605
		c-2.712,0-5.483,1.579-6.109,4.648l-1.848,9h-2.98L616.339,46.567z"/>
	<path fill="#EDEDED" d="M643.879,55.179c-0.716,3.814,2.652,4.798,5.87,4.798c3.367,0,6.02-1.312,6.497-3.606
		c0.417-1.937-0.924-2.771-3.309-3.158l-4.648-0.805c-2.474-0.388-6.02-1.431-5.155-5.573c0.805-3.903,4.41-6.466,9.863-6.466
		c4.262,0,8.464,1.55,7.659,6.675h-3.159c0.09-1.639-0.387-3.934-5.483-3.934c-2.324,0-5.125,0.983-5.691,3.486
		c-0.269,1.312,0.388,2.354,2.92,2.802l5.007,0.894c1.579,0.357,6.258,1.043,5.274,5.454c-1.103,5.394-6.287,6.973-10.579,6.973
		c-4.798,0-9.417-1.698-8.225-7.539H643.879z"/>
	<path fill="#EDEDED" d="M663.519,55.268c-0.477,3.249,2.086,4.947,4.708,4.947c1.729,0,4.143-0.566,5.633-2.771h3.159
		c-2.295,3.725-6.05,5.274-9.149,5.274c-6.079,0-8.284-3.844-7.331-8.344c0.954-4.5,4.679-8.344,10.788-8.344
		c4.112,0,7.986,2.384,6.616,8.851l-0.06,0.387H663.519z M675.201,52.944c0.149-2.831-1.758-4.41-4.529-4.41
		s-5.543,1.639-6.586,4.41H675.201z"/>
	<path fill="#EDEDED" d="M690.313,46.031c6.05,0,8.284,3.844,7.331,8.344c-0.954,4.5-4.709,8.344-10.788,8.344
		s-8.284-3.844-7.331-8.344C680.479,49.875,684.204,46.031,690.313,46.031z M689.806,48.534c-4.291,0-6.556,3.01-7.122,5.841
		c-0.626,2.831,0.388,5.841,4.679,5.841c4.351,0,6.496-3.01,7.122-5.841C695.052,51.543,694.158,48.534,689.806,48.534z"/>
	<path fill="#EDEDED" d="M710.403,55.179c-0.716,3.814,2.652,4.798,5.87,4.798c3.368,0,6.02-1.312,6.497-3.606
		c0.417-1.937-0.924-2.771-3.309-3.158l-4.648-0.805c-2.474-0.388-6.02-1.431-5.155-5.573c0.805-3.903,4.41-6.466,9.863-6.466
		c4.262,0,8.464,1.55,7.659,6.675h-3.159c0.09-1.639-0.387-3.934-5.483-3.934c-2.324,0-5.125,0.983-5.691,3.486
		c-0.269,1.312,0.388,2.354,2.92,2.802l5.007,0.894c1.579,0.357,6.258,1.043,5.274,5.454c-1.103,5.394-6.287,6.973-10.579,6.973
		c-4.798,0-9.417-1.698-8.225-7.539H710.403z"/>
	<path fill="#EDEDED" d="M737.851,46.031c6.05,0,8.284,3.844,7.331,8.344c-0.954,4.5-4.709,8.344-10.788,8.344
		s-8.284-3.844-7.331-8.344C728.017,49.875,731.742,46.031,737.851,46.031z M737.344,48.534c-4.291,0-6.556,3.01-7.122,5.841
		c-0.626,2.831,0.388,5.841,4.679,5.841c4.351,0,6.496-3.01,7.122-5.841C742.59,51.543,741.696,48.534,737.344,48.534z"/>
	<path fill="#EDEDED" d="M750.282,44.242c0.596-2.891,2.593-3.874,5.603-3.874c0.924,0,1.698,0.149,2.533,0.238l-0.478,2.325
		c-0.565-0.03-1.103-0.06-1.668-0.06c-1.938,0-2.771,0.238-3.04,1.52l-0.477,2.176h4.41l-0.477,2.324h-4.411l-2.741,13.291h-2.98
		l2.742-13.291h-3.188l0.477-2.324h3.188L750.282,44.242z"/>
	<path fill="#EDEDED" d="M760.206,41.769h2.98l-1.014,4.798h4.471l-0.478,2.324h-4.47l-1.996,9.626
		c-0.269,1.281,0.536,1.698,2.056,1.698c0.686,0,1.4-0.09,2.116-0.209l-0.537,2.504c-1.043,0.208-2.146,0.208-3.367,0.208
		c-2.95,0-3.814-1.43-3.338-3.695l2.087-10.132h-3.219l0.477-2.324h3.219L760.206,41.769z"/>
	<path fill="#EDEDED" d="M789.8,46.567h3.159l-9.388,15.615h-3.248l-1.431-11.92h-0.06l-6.377,11.92h-3.159l-2.831-15.615h3.309
		l1.848,11.92h0.06l6.347-11.92h3.278l1.49,11.92h0.06L789.8,46.567z"/>
	<path fill="#EDEDED" d="M793.112,51.454c1.222-3.903,4.202-5.423,8.881-5.423c3.188,0,7.062,0.774,6.258,4.439l-1.729,8.404
		c-0.208,0.894,0.149,1.341,1.043,1.341c0.328,0,0.745-0.03,1.073-0.119l-0.417,2.086c-0.745,0.119-1.669,0.179-2.385,0.179
		c-1.52,0-2.384-0.417-2.234-2.176c-1.521,1.609-4.619,2.533-7.152,2.533c-5.186,0-5.841-2.682-5.364-4.708
		c0.566-2.891,2.622-4.291,7.688-4.857l3.486-0.357c1.699-0.149,2.771-0.478,3.1-1.878c0.477-2.146-1.579-2.562-3.964-2.562
		c-2.503,0-4.917,0.715-5.482,3.099H793.112z M804.705,54.017c-0.566,0.506-1.401,0.715-3.1,0.924l-3.457,0.417
		c-2.384,0.328-3.725,0.894-4.082,2.562c-0.328,1.461,0.953,2.474,3.129,2.474c3.337,0,6.556-1.758,7.122-4.381L804.705,54.017z"/>
	<path fill="#EDEDED" d="M812.574,46.567h2.98l-0.597,2.86h0.06c1.938-2.503,4.083-3.396,6.08-3.396
		c0.745,0,1.103,0.029,1.668,0.179l-0.685,3.218c-0.686-0.208-1.223-0.298-2.026-0.298c-2.95,0-5.364,1.759-6.08,5.126l-1.639,7.927
		h-2.98L812.574,46.567z"/>
	<path fill="#EDEDED" d="M824.496,55.268c-0.477,3.249,2.086,4.947,4.708,4.947c1.729,0,4.143-0.566,5.633-2.771h3.159
		c-2.295,3.725-6.05,5.274-9.149,5.274c-6.079,0-8.284-3.844-7.331-8.344c0.954-4.5,4.679-8.344,10.788-8.344
		c4.112,0,7.986,2.384,6.616,8.851l-0.06,0.387H824.496z M836.177,52.944c0.149-2.831-1.758-4.41-4.529-4.41
		s-5.543,1.639-6.586,4.41H836.177z"/>
</g>
</svg>
