<?xml version="1.0" encoding="UTF-8" standalone="no"?>
<!-- Generator: Adobe Illustrator 15.1.0, SVG Export Plug-In . SVG Version: 6.00 Build 0)  -->

<svg
   xmlns:dc="http://purl.org/dc/elements/1.1/"
   xmlns:cc="http://creativecommons.org/ns#"
   xmlns:rdf="http://www.w3.org/1999/02/22-rdf-syntax-ns#"
   xmlns:svg="http://www.w3.org/2000/svg"
   xmlns="http://www.w3.org/2000/svg"
   xmlns:sodipodi="http://sodipodi.sourceforge.net/DTD/sodipodi-0.dtd"
   xmlns:inkscape="http://www.inkscape.org/namespaces/inkscape"
   version="1.1"
   id="Ebene_1"
   x="0px"
   y="0px"
   width="517.89001"
   height="87.811996"
   viewBox="0 0 517.89 87.812"
   enable-background="new 0 0 841.89 87.812"
   xml:space="preserve"
   inkscape:version="0.48.2 r9819"
   sodipodi:docname="OneProSeo-Logo-2014Short-SVG Kopie (1).svgz"><metadata
   id="metadata3223"><rdf:RDF><cc:Work
       rdf:about=""><dc:format>image/svg+xml</dc:format><dc:type
         rdf:resource="http://purl.org/dc/dcmitype/StillImage" /><dc:title></dc:title></cc:Work></rdf:RDF></metadata><defs
   id="defs3221" /><sodipodi:namedview
   pagecolor="#ffffff"
   bordercolor="#666666"
   borderopacity="1"
   objecttolerance="10"
   gridtolerance="10"
   guidetolerance="10"
   inkscape:pageopacity="0"
   inkscape:pageshadow="2"
   inkscape:window-width="1440"
   inkscape:window-height="819"
   id="namedview3219"
   showgrid="false"
   inkscape:zoom="0.53094821"
   inkscape:cx="420.94501"
   inkscape:cy="43.905998"
   inkscape:window-x="0"
   inkscape:window-y="0"
   inkscape:window-maximized="1"
   inkscape:current-layer="Ebene_1" />
<g
   id="g3185">
	<path
   d="m 96.015,44.285 c 2.31,-10.796 10.527,-20.249 26.748,-20.249 16.167,0 20.679,9.453 18.369,20.249 -2.31,10.796 -10.527,20.249 -26.802,20.249 C 98.163,64.533 93.705,55.081 96.015,44.285 z m 36.738,0 c 1.719,-8.379 -2.202,-14.233 -11.226,-14.233 -9.024,0 -15.415,5.854 -17.134,14.233 -1.719,8.379 2.202,14.233 11.226,14.233 8.97,0 15.415,-5.854 17.134,-14.233 z"
   id="path3187"
   inkscape:connector-curvature="0"
   style="fill:#ededed" />
	<path
   d="m 142.478,34.993 h 7.412 l -0.913,4.297 h 0.107 c 3.062,-3.062 7.197,-5.049 12.3,-5.049 6.177,0 11.548,2.148 9.99,9.883 l -3.975,19.335 h -7.412 l 3.491,-16.972 c 0.161,-0.752 0.215,-1.504 0.215,-2.31 0,-2.31 -1.45,-4.243 -5.962,-4.243 -3.921,0 -9.292,2.148 -10.581,8.218 l -3.169,15.307 h -7.412 l 5.909,-28.466 z"
   id="path3189"
   inkscape:connector-curvature="0"
   style="fill:#ededed" />
	<path
   d="m 177.392,51.106 c -0.43,3.223 0.645,8.057 8.003,8.057 4.888,0 7.412,-1.719 9.346,-4.082 h 8.057 c -2.31,3.169 -7.412,9.453 -18.315,9.453 -12.891,0 -16.006,-7.465 -14.448,-15.039 1.88,-9.507 10.312,-15.576 20.356,-15.576 12.622,0 15.791,7.788 14.072,16.113 l -0.215,1.074 h -26.856 z m 20.141,-4.727 c 0.269,-5.747 -4.512,-7.412 -8.11,-7.412 -3.438,0 -8.54,1.611 -11.011,7.412 h 19.121 z"
   id="path3191"
   inkscape:connector-curvature="0"
   style="fill:#ededed" />
	<path
   d="m 210.049,25.11 h 25.781 c 10.903,0 12.139,6.499 11.118,11.655 -1.719,8.218 -6.982,12.998 -15.415,12.998 h -16.167 l -2.847,13.696 H 202.1 l 7.949,-38.349 z m 6.768,17.671 h 11.172 c 3.223,0 6.929,-0.107 8.057,-5.264 1.021,-4.995 -1.88,-5.425 -4.888,-5.425 h -12.139 l -2.202,10.689 z"
   id="path3193"
   inkscape:connector-curvature="0"
   style="fill:#ededed" />
	<path
   d="m 247.005,34.67 h 9.131 l -1.182,5.64 h 0.107 c 4.297,-4.458 7.466,-6.392 12.837,-6.392 1.074,0 2.363,0.054 3.384,0.269 l -1.826,8.862 c -1.665,-0.483 -3.276,-0.859 -5.049,-0.859 -6.499,0 -10.205,3.276 -11.333,8.862 l -2.578,12.407 h -9.453 l 5.962,-28.789 z"
   id="path3195"
   inkscape:connector-curvature="0"
   style="fill:#ededed" />
	<path
   d="m 287.397,33.596 c 11.333,0 18.101,4.565 15.791,15.469 -2.31,10.904 -10.796,15.468 -22.236,15.468 -11.333,0 -18.101,-4.565 -15.791,-15.468 2.31,-10.903 10.796,-15.469 22.236,-15.469 z m -5.048,24.278 c 5.854,0 9.829,-3.169 11.064,-8.809 1.235,-5.64 -1.558,-8.809 -7.412,-8.809 -5.854,0 -9.829,3.169 -11.064,8.809 -1.235,5.64 1.557,8.809 7.412,8.809 z"
   id="path3197"
   inkscape:connector-curvature="0"
   style="fill:#ededed" />
	<path
   d="m 312.376,47.185 c -7.144,-1.128 -9.346,-5.425 -8.218,-10.796 2.148,-9.937 12.354,-12.622 24.814,-12.622 17.134,0 23.149,4.458 22.021,12.568 h -17.617 c 0.376,-1.558 -0.322,-2.471 -1.665,-3.062 -1.235,-0.591 -2.9,-0.806 -4.565,-0.806 -4.512,0 -6.23,1.074 -6.606,2.739 -0.215,1.074 0.107,1.772 1.558,1.987 l 17.563,2.686 c 7.358,1.128 11.333,4.673 10.044,11.172 -1.987,9.399 -10.527,13.75 -27.554,13.75 -11.548,0 -24.116,-1.611 -21.753,-12.891 h 18.262 c -0.215,1.235 0.161,2.148 1.074,2.739 0.967,0.537 2.632,0.806 4.941,0.806 4.727,0 6.284,-1.235 6.714,-3.115 0.215,-1.128 -0.269,-2.202 -2.202,-2.578 l -16.811,-2.577 z"
   id="path3199"
   inkscape:connector-curvature="0"
   style="fill:#ededed" />
	<path
   d="m 389.615,54.651 c -1.719,3.169 -4.458,5.586 -8.271,7.305 -3.813,1.718 -8.54,2.685 -14.771,2.685 -14.126,0 -21.108,-5.156 -18.906,-15.898 2.148,-10.151 11.118,-15.845 24.277,-15.845 13.105,0 21.538,4.351 18.369,19.014 h -29.541 c -0.43,2.095 1.128,5.317 7.036,5.317 3.491,0 5.64,-0.698 7.52,-2.578 h 14.287 z m -11.44,-9.507 c 0.43,-3.223 -2.202,-5.156 -6.875,-5.156 -4.727,0 -7.627,1.45 -9.131,5.156 h 16.006 z"
   id="path3201"
   inkscape:connector-curvature="0"
   style="fill:#ededed" />
	<path
   d="m 414.11,32.898 c 15.093,0 20.732,5.049 18.423,15.845 -2.148,10.85 -9.937,15.898 -25.029,15.898 -15.254,0 -20.625,-5.048 -18.477,-15.898 2.31,-10.743 9.829,-15.845 25.083,-15.845 z m -4.78,23.042 c 5.425,0 8.218,-2.471 9.131,-7.197 1.021,-4.673 -0.752,-7.144 -6.177,-7.144 -5.371,0 -8.164,2.471 -9.185,7.144 -0.912,4.726 0.86,7.197 6.231,7.197 z"
   id="path3203"
   inkscape:connector-curvature="0"
   style="fill:#ededed" />
	<path
   d="m 429.922,58.816 h 5.101 l -0.948,4.643 h -5.102 l 0.949,-4.643 z"
   id="path3205"
   inkscape:connector-curvature="0"
   style="fill:#ededed" />
	<path
   d="m 452.942,52.211 c 0.033,-1.831 -1.504,-3.27 -4.12,-3.27 -4.186,0 -6.604,2.845 -7.227,5.853 -0.687,3.008 0.426,5.854 4.284,5.854 3.531,0 4.709,-1.374 6.213,-3.826 h 4.709 c -2.485,7.194 -10.007,7.292 -11.151,7.292 -7.749,0 -9.81,-4.512 -8.763,-9.319 1.145,-5.591 5.983,-9.319 12.654,-9.319 2.616,0 8.371,0.883 8.109,6.736 h -4.708 z"
   id="path3207"
   inkscape:connector-curvature="0"
   style="fill:#ededed" />
	<path
   d="m 468.676,45.475 c 7.782,0 9.744,4.545 8.796,9.319 -1.046,4.807 -4.904,9.319 -12.688,9.319 -7.749,0 -9.81,-4.512 -8.763,-9.319 0.949,-4.774 4.905,-9.319 12.655,-9.319 z m -3.172,15.172 c 4.414,0 6.572,-2.845 7.26,-5.854 0.621,-3.008 -0.426,-5.853 -4.808,-5.853 -4.414,0 -6.604,2.845 -7.227,5.853 -0.686,3.009 0.426,5.854 4.775,5.854 z"
   id="path3209"
   inkscape:connector-curvature="0"
   style="fill:#ededed" />
	<path
   d="m 490.915,53.126 c 0.359,-1.798 0.687,-3.989 -3.4,-3.989 -1.569,0 -4.905,0.883 -5.689,4.676 l -1.995,9.646 h -4.513 l 3.597,-17.33 h 4.513 l -0.556,2.616 h 0.065 c 1.864,-1.864 4.382,-3.074 7.488,-3.074 2.027,0 4.84,0.36 5.428,3.205 1.439,-1.603 4.088,-3.205 7.718,-3.205 2.812,0 6.638,0.948 5.591,6.278 l -2.387,11.51 h -4.513 l 2.126,-10.333 c 0.359,-1.798 0.687,-3.989 -3.401,-3.989 -1.569,0 -4.904,0.883 -5.689,4.676 l -1.994,9.646 h -4.513 l 2.124,-10.333 z"
   id="path3211"
   inkscape:connector-curvature="0"
   style="fill:#ededed" />
</g>
<circle
   cx="43.884998"
   cy="45.958"
   r="41.854"
   id="circle3213"
   sodipodi:cx="43.884998"
   sodipodi:cy="45.958"
   sodipodi:rx="41.854"
   sodipodi:ry="41.854"
   style="fill:#3aaa35" />
<g
   id="g3215">
	<path
   d="m 65.324,81.91 c 0,0 -5.779,2.953 -7.771,3.619 -2.241,0.75 -9.158,2.041 -9.158,2.041 l 5.487,-25.263 c 1.208,-5.256 2.527,-10.226 3.945,-14.896 -0.311,0.278 -1.375,1.089 -3.197,2.44 -1.808,1.353 -6.353,4.291 -13.621,8.827 L 34.105,47.513 63.484,29.452 H 76.41 L 65.324,81.91 z"
   id="path3217"
   inkscape:connector-curvature="0"
   style="fill:#ffffff" />
</g>
</svg>